<svg viewBox="0 0 482 335" height="335" width="482" style="width:auto; height:20px; vertical-align: middle;" xmlns="http://www.w3.org/2000/svg">
	<path d="M170.41 331.424C165.617 331.424 161.11 330.672 156.89 329.168C152.741 327.592 149.129 325.3 146.053 322.292C142.977 319.283 140.545 315.559 138.757 311.118C137.04 306.605 136.181 301.412 136.181 295.539C136.181 289.737 137.076 284.58 138.864 280.067C140.652 275.483 143.084 271.615 146.16 268.464C149.308 265.312 152.956 262.913 157.105 261.265C161.254 259.618 165.653 258.794 170.302 258.794C175.381 258.794 179.745 259.725 183.393 261.587C187.041 263.45 190.009 265.563 192.299 267.926L184.037 278.026C182.248 276.45 180.353 275.125 178.35 274.051C176.347 272.976 173.843 272.439 170.839 272.439C168.121 272.439 165.617 272.976 163.328 274.051C161.11 275.053 159.179 276.522 157.534 278.456C155.889 280.39 154.601 282.753 153.671 285.547C152.813 288.34 152.384 291.492 152.384 295.002C152.384 302.236 153.993 307.859 157.212 311.87C160.502 315.809 165.438 317.779 172.019 317.779C173.45 317.779 174.845 317.6 176.204 317.242C177.563 316.884 178.672 316.347 179.53 315.63V303.597H167.942V290.704H193.479V322.936C191.047 325.3 187.828 327.306 183.822 328.953C179.816 330.6 175.345 331.424 170.41 331.424Z" style="fill-opacity:1;"/>
	<path d="M207.813 330.135V260.083H223.586V330.135H207.813Z" style="fill-opacity:1;"/>
	<path d="M254.786 330.135V273.406H235.58V260.083H289.873V273.406H270.667V330.135H254.786Z" style="fill-opacity:1;"/>
	<path d="M301.909 330.135V260.083H317.682V316.812H345.365V330.135H301.909Z" style="fill-opacity:1;"/>
	<path d="M380.511 294.679L378.794 301.126H393.709L392.099 294.679C391.098 291.17 390.132 287.445 389.202 283.505C388.273 279.566 387.343 275.77 386.413 272.117H385.983C385.125 275.841 384.231 279.673 383.301 283.613C382.443 287.481 381.513 291.17 380.511 294.679ZM355.189 330.135L377.078 260.083H396.07L417.958 330.135H401.22L396.928 313.481H375.576L371.284 330.135H355.189Z" style="fill-opacity:1;"/>
	<path d="M428.887 330.135V260.083H452.815C456.463 260.083 459.825 260.37 462.901 260.943C466.048 261.444 468.766 262.375 471.056 263.736C473.416 265.097 475.24 266.888 476.528 269.108C477.887 271.329 478.566 274.122 478.566 277.489C478.566 279.065 478.352 280.64 477.923 282.216C477.493 283.792 476.885 285.26 476.099 286.621C475.312 287.982 474.346 289.2 473.201 290.274C472.129 291.349 470.877 292.137 469.446 292.638V293.068C471.234 293.497 472.88 294.178 474.382 295.109C475.884 295.969 477.207 297.079 478.352 298.44C479.496 299.801 480.39 301.412 481.034 303.275C481.678 305.065 482 307.142 482 309.506C482 313.087 481.285 316.167 479.854 318.746C478.495 321.325 476.563 323.473 474.06 325.193C471.628 326.84 468.767 328.093 465.476 328.953C462.186 329.741 458.645 330.135 454.853 330.135H428.887ZM444.66 288.125H452.064C455.926 288.125 458.716 287.373 460.433 285.869C462.221 284.365 463.115 282.359 463.115 279.852C463.115 277.131 462.221 275.197 460.433 274.051C458.645 272.905 455.891 272.332 452.171 272.332H444.66V288.125ZM444.66 317.887H453.566C462.221 317.887 466.549 314.735 466.549 308.432C466.549 305.352 465.476 303.167 463.33 301.878C461.184 300.517 457.929 299.836 453.566 299.836H444.66V317.887Z" style="fill-opacity:1;"/>
	<path d="M34.6644 231.096V128.112C32.1884 132.055 28.3057 138.474 24.7457 141.712C18.307 147.568 9.86022 152.688 0 152.688V129.579C1.69457 129.579 4.80256 128.612 9.19648 124.616C13.4459 120.751 17.8014 115.016 21.7602 108.135C29.8692 94.0409 34.6644 78.116 34.6644 69.3288H9.90411V46.2192H34.6644V4.95205H57.774V46.2192H82.5342V69.3288H57.774C57.774 83.7372 63.7954 95.9119 71.6809 104.569C80.0423 113.748 88.7327 117.199 92.4384 117.199V140.308C80.873 140.308 67.9869 133.356 57.774 123.415V231.096H34.6644Z" style="fill-opacity:1;"/>
	<path fill-rule="evenodd" clip-rule="evenodd" d="M82.5342 37.9658H105.644V80.8836C105.644 103.175 102.326 136.758 94.5696 164.425C90.6729 178.324 85.879 189.904 80.3928 197.759C74.8744 205.659 70.0334 207.986 66.0274 207.986V231.096C80.798 231.096 91.7416 221.868 99.3384 210.992C106.967 200.07 112.619 185.652 116.821 170.664C120.256 158.411 122.872 145.225 124.766 132.281C129.867 143.609 135.815 154.779 142.391 165.236C145.815 170.681 149.448 175.996 153.27 181.095C146.746 187.638 140.123 193.256 133.789 197.662C123.211 205.017 114.882 207.986 109.771 207.986V231.096C121.991 231.096 135.121 224.883 146.983 216.635C154.087 211.694 161.27 205.65 168.231 198.806C172.431 203.179 176.791 207.235 181.291 210.892C195.915 222.777 212.863 231.096 231.096 231.096V207.986C220.029 207.986 208.09 202.893 195.865 192.958C191.777 189.636 187.75 185.845 183.821 181.664C205.417 155.184 223.668 120.167 223.668 87.4863V84.1849C223.668 79.6267 219.973 75.9315 215.414 75.9315H183.698L205.755 26.4711C208.189 21.0122 204.194 14.8562 198.217 14.8562H82.5342V37.9658ZM168.895 163.311C184.468 143.247 196.271 120.075 199.606 99.0411H160.807C154.83 99.0411 150.835 92.8851 153.269 87.4262L175.326 37.9658H128.753V57.774C128.753 82.0906 141.491 120.392 161.954 152.934C164.198 156.502 166.515 159.968 168.895 163.311Z" style="fill-opacity:1;"/>
	<path d="M283.784 78.2283C285.689 86.0505 287.275 94.7703 288.488 104.53C288.3 105.789 287.482 108.336 285.059 112.113C282.404 116.25 278.526 120.765 273.986 124.974C269.453 129.177 264.572 132.787 260.103 135.276C255.355 137.922 252.229 138.658 250.904 138.658V161.767C258.039 161.767 265.291 158.841 271.351 155.464C277.691 151.931 284.049 147.158 289.698 141.921C290.2 141.455 290.699 140.984 291.194 140.507C291.682 151.405 291.873 160.795 291.53 168.914C291.057 180.132 289.588 187.907 287.145 193.359C284.908 198.353 281.776 201.614 276.845 203.9C271.46 206.398 263.345 207.986 250.904 207.986V231.096C264.874 231.096 276.826 229.383 286.568 224.865C296.764 220.136 303.819 212.667 308.236 202.806C312.448 193.401 314.1 182.193 314.619 169.889C315.142 157.496 314.54 142.951 313.612 126.454C312.12 99.9331 308.444 78.4258 302.896 60.7239C314.453 48.2504 324.849 33.2524 330.227 18.9133L308.588 10.799C305.54 18.9289 299.977 28.0275 293.106 36.6782C286.308 23.589 278.046 13.2274 268.565 4.64101L253.052 21.7699C261.764 29.6605 269.71 39.9068 276.071 54.6779C271.36 58.8325 266.723 62.2877 262.474 64.8239C256.638 68.308 252.75 69.3288 250.904 69.3288V92.4384C258.962 92.4384 267.196 88.9197 274.321 84.6663C277.461 82.7915 280.632 80.624 283.784 78.2283Z" style="fill-opacity:1;"/>
	<path d="M397.969 14.0698C425.672 11.4549 455.221 8.62917 463.31 7.72391L465.881 30.6901C462.083 31.1151 453.837 31.9371 443.38 32.9519C443.983 49.8182 446.293 90.1748 452.381 128.665C455.971 151.361 460.762 172.656 466.964 187.992C470.081 195.698 473.263 201.153 476.266 204.496C479.177 207.736 481.087 207.995 482 207.987V231.096C472.287 231.181 464.721 226.225 459.075 219.94C453.52 213.757 449.126 205.521 445.541 196.656C438.339 178.849 433.225 155.48 429.555 132.276C423.465 93.7673 421.044 53.6419 420.338 35.1633C414.587 35.7108 408.679 36.2706 402.838 36.8225C403.343 109.764 401.882 146.657 388.224 194.996L407.774 188.392C403.856 178.532 399.985 168.535 397.144 160.615L418.895 152.81C423.101 164.532 429.771 181.3 435.447 195.269C438.274 202.225 440.834 208.438 442.687 212.912C443.614 215.148 444.363 216.949 444.88 218.189C445.139 218.809 445.339 219.289 445.475 219.613L445.679 220.101L445.679 220.102C445.679 220.102 445.68 220.103 435.024 224.571C424.367 229.038 424.367 229.038 424.367 229.038L424.154 228.53C424.016 228.199 423.813 227.712 423.551 227.084C423.027 225.829 422.271 224.011 421.337 221.756C420.011 218.555 418.325 214.469 416.439 209.858L367.976 226.229C361.528 228.408 355.363 222.283 357.498 215.82L359.573 209.54C378.119 153.413 380.264 120.32 379.742 38.9968C373.618 39.5715 367.976 40.0997 363.16 40.5498C361.103 40.7421 359.197 40.9202 357.468 41.0816C357.683 85.1639 356.743 128.708 352.187 162.21C349.742 180.19 346.139 196.246 340.585 208.127C335.191 219.663 326.078 230.886 311.281 231.015L311.079 207.907C312.169 207.897 315.436 207.353 319.65 198.34C323.704 189.669 326.936 176.391 329.288 159.096C333.961 124.737 334.702 78.3365 334.286 30.6614L334.26 27.6264C334.222 23.3367 337.477 19.7336 341.749 19.336C360.49 17.5913 379.23 15.8386 397.969 14.0698Z" style="fill-opacity:1;"/>
</svg>
