{
  "by_file": [],
  "by_case": {
    "spec/frontend/terms/components/app_spec.js": [
      "TermsApp accept button is disabled until user scrolls to the bottom of the terms"
    ],
    "ee/spec/frontend/subscriptions/buy_addons_shared/components/checkout_spec.js": [
      "Checkout when mounted renders a Billing Address Component"
    ]
  }
}
